;*************************************************************
;*************************************************************
;**                                                         **
;**                   Legendre polynomial                   **
;**                                                         **
;*************************************************************
;*************************************************************
In: FL_SPCRES=0 FL_CPXRES=0 SD=0 RM=0 IM=2compl SS=4 WS=64
Func: fnLegendre



;=======================================
; Pn(Long Integer) --> Real34
;=======================================
In:  AM=DEG FL_ASLIFT=0 FL_CPXRES=0 RY=LonI:"1" RX=LonI:"10"
Out: EC=0 FL_CPXRES=0 FL_ASLIFT=1 RL=LonI:"10" RX=Real:"10"




;=======================================
; Pn(Time) --> Error24
;=======================================



;=======================================
; Pn(Date) --> Error24
;=======================================



;=======================================
; Pn(String) --> Error24
;=======================================
In:  FL_ASLIFT=0 RX=Stri:"String test"
Out: EC=24 FL_ASLIFT=0 RX=Stri:"String test"



;=======================================
; Pn(Real16 Matrix) --> Error24
;=======================================



;=======================================
; Pn(Complex16 Matrix) --> Error24
;=======================================



;=======================================
; Pn(Short Integer) --> Error24
;=======================================



;=======================================
; Pn(Real34) --> Real34
;=======================================

; Linear
In:  AM=DEG FL_ASLIFT=0 FL_CPXRES=0 RY=Real:"1" RX=Real:"-10"
Out: EC=0 FL_CPXRES=0 FL_ASLIFT=1 RL=Real:"-10" RX=Real:"-10"

In:  AM=DEG FL_ASLIFT=0 FL_CPXRES=0 RY=Real:"1" RX=Real:"-2"
Out: EC=0 FL_CPXRES=0 FL_ASLIFT=1 RL=Real:"-2" RX=Real:"-2"

In:  AM=DEG FL_ASLIFT=0 FL_CPXRES=0 RY=Real:"1" RX=Real:"-0.5"
Out: EC=0 FL_CPXRES=0 FL_ASLIFT=1 RL=Real:"-0.5" RX=Real:"-0.5"

In:  AM=DEG FL_ASLIFT=0 FL_CPXRES=0 RY=Real:"1" RX=Real:"0"
Out: EC=0 FL_CPXRES=0 FL_ASLIFT=1 RL=Real:"0" RX=Real:"0"

In:  AM=DEG FL_ASLIFT=0 FL_CPXRES=0 RY=Real:"1" RX=Real:"0.1"
Out: EC=0 FL_CPXRES=0 FL_ASLIFT=1 RL=Real:"0.1" RX=Real:"0.1"

In:  AM=DEG FL_ASLIFT=0 FL_CPXRES=0 RY=Real:"1" RX=Real:"1"
Out: EC=0 FL_CPXRES=0 FL_ASLIFT=1 RL=Real:"1" RX=Real:"1"

; Quadratic
In:  AM=DEG FL_ASLIFT=0 FL_CPXRES=0 RY=Real:"2" RX=Real:"-10"
Out: EC=0 FL_CPXRES=0 FL_ASLIFT=1 RL=Real:"-10" RX=Real:"149.5"

In:  AM=DEG FL_ASLIFT=0 FL_CPXRES=0 RY=Real:"2" RX=Real:"-2"
Out: EC=0 FL_CPXRES=0 FL_ASLIFT=1 RL=Real:"-2" RX=Real:"5.5"

In:  AM=DEG FL_ASLIFT=0 FL_CPXRES=0 RY=Real:"2" RX=Real:"-0.5"
Out: EC=0 FL_CPXRES=0 FL_ASLIFT=1 RL=Real:"-0.5" RX=Real:"-0.125"

In:  AM=DEG FL_ASLIFT=0 FL_CPXRES=0 RY=Real:"2" RX=Real:"0"
Out: EC=0 FL_CPXRES=0 FL_ASLIFT=1 RL=Real:"0" RX=Real:"-0.5"

In:  AM=DEG FL_ASLIFT=0 FL_CPXRES=0 RY=Real:"2" RX=Real:"0.1"
Out: EC=0 FL_CPXRES=0 FL_ASLIFT=1 RL=Real:"0.1" RX=Real:"-0.485"

In:  AM=DEG FL_ASLIFT=0 FL_CPXRES=0 RY=Real:"2" RX=Real:"1"
Out: EC=0 FL_CPXRES=0 FL_ASLIFT=1 RL=Real:"1" RX=Real:"1"

; Cubic
In:  AM=DEG FL_ASLIFT=0 FL_CPXRES=0 RY=Real:"3" RX=Real:"-10"
Out: EC=0 FL_CPXRES=0 FL_ASLIFT=1 RL=Real:"-10" RX=Real:"-2485"

In:  AM=DEG FL_ASLIFT=0 FL_CPXRES=0 RY=Real:"3" RX=Real:"-2"
Out: EC=0 FL_CPXRES=0 FL_ASLIFT=1 RL=Real:"-2" RX=Real:"-17"

In:  AM=DEG FL_ASLIFT=0 FL_CPXRES=0 RY=Real:"3" RX=Real:"-0.5"
Out: EC=0 FL_CPXRES=0 FL_ASLIFT=1 RL=Real:"-0.5" RX=Real:"0.4375"

In:  AM=DEG FL_ASLIFT=0 FL_CPXRES=0 RY=Real:"3" RX=Real:"0"
Out: EC=0 FL_CPXRES=0 FL_ASLIFT=1 RL=Real:"0" RX=Real:"0"

In:  AM=DEG FL_ASLIFT=0 FL_CPXRES=0 RY=Real:"3" RX=Real:"0.1"
Out: EC=0 FL_CPXRES=0 FL_ASLIFT=1 RL=Real:"0.1" RX=Real:"-0.1475"

In:  AM=DEG FL_ASLIFT=0 FL_CPXRES=0 RY=Real:"3" RX=Real:"1"
Out: EC=0 FL_CPXRES=0 FL_ASLIFT=1 RL=Real:"1" RX=Real:"1"

; Quartic
In:  AM=DEG FL_ASLIFT=0 FL_CPXRES=0 RY=Real:"4" RX=Real:"-10"
Out: EC=0 FL_CPXRES=0 FL_ASLIFT=1 RL=Real:"-10" RX=Real:"43375.375"

In:  AM=DEG FL_ASLIFT=0 FL_CPXRES=0 RY=Real:"4" RX=Real:"-2"
Out: EC=0 FL_CPXRES=0 FL_ASLIFT=1 RL=Real:"-2" RX=Real:"55.375"

In:  AM=DEG FL_ASLIFT=0 FL_CPXRES=0 RY=Real:"4" RX=Real:"-0.5"
Out: EC=0 FL_CPXRES=0 FL_ASLIFT=1 RL=Real:"-0.5" RX=Real:"-0.2890625"

In:  AM=DEG FL_ASLIFT=0 FL_CPXRES=0 RY=Real:"4" RX=Real:"0"
Out: EC=0 FL_CPXRES=0 FL_ASLIFT=1 RL=Real:"0" RX=Real:"0.375"

In:  AM=DEG FL_ASLIFT=0 FL_CPXRES=0 RY=Real:"4" RX=Real:"0.1"
Out: EC=0 FL_CPXRES=0 FL_ASLIFT=1 RL=Real:"0.1" RX=Real:"0.3379375"

In:  AM=DEG FL_ASLIFT=0 FL_CPXRES=0 RY=Real:"4" RX=Real:"1"
Out: EC=0 FL_CPXRES=0 FL_ASLIFT=1 RL=Real:"1" RX=Real:"1"



;=======================================
; Pn(Complex34) --> Error24
;=======================================
