;*************************************************************
;*************************************************************
;**                                                         **
;**                         log2                            **
;**                                                         **
;*************************************************************
;*************************************************************
In: FL_SPCRES=0 FL_CPXRES=0 SD=0 RM=0 IM=2compl SS=4 WS=64
Func: fnLog2



;=======================================
; log2(Long Integer) --> Real34
;=======================================
In:  AM=DEG FL_ASLIFT=0 FL_CPXRES=0 RX=LonI:"5"
Out: EC=0 FL_CPXRES=0 FL_ASLIFT=1 RL=LonI:"5" RX=Real:"2.3219280948873623478703194294893901758648313930245806120547564"

In:  AM=DEG FL_ASLIFT=0 FL_CPXRES=0 RX=LonI:"-5"
Out: EC=1 FL_CPXRES=0 FL_ASLIFT=0 RX=LonI:"-5"

In:  AM=DEG FL_ASLIFT=0 FL_CPXRES=0 FL_SPCRES=1 RX=LonI:"-5"
Out: EC=0 FL_CPXRES=0 FL_ASLIFT=1 RL=LonI:"-5" RX=Real:"NaN"

In:  AM=DEG FL_ASLIFT=0 FL_CPXRES=1 FL_SPCRES=0 RX=LonI:"-5"
Out: EC=0 FL_CPXRES=1 FL_ASLIFT=1 RL=LonI:"-5" RX=Cplx:"2.3219280948873623478703194294893901758648313930245806120547564 i +4.5323601418271938096276829457166668101718614677237955841860166"

In:  AM=DEG FL_ASLIFT=0 FL_CPXRES=0 FL_SPCRES=0 RX=LonI:"0"
Out: EC=1 FL_CPXRES=0 FL_ASLIFT=0 RX=LonI:"0"

In:  AM=DEG FL_ASLIFT=0 FL_CPXRES=0 FL_SPCRES=1 RX=LonI:"0"
Out: EC=0 FL_CPXRES=0 FL_ASLIFT=1 RL=LonI:"0" RX=Real:"-inf"



;=======================================
; log2(Time)
;=======================================



;=======================================
; log2(Date)
;=======================================



;=======================================
; log2(String) --> Error24
;=======================================
In:  FL_ASLIFT=0 RX=Stri:"String test"
Out: EC=24 FL_ASLIFT=0 RX=Stri:"String test"



;=======================================
; log2(Real16 Matrix)
;=======================================



;=======================================
; log2(Complex16 Matrix)
;=======================================



;=======================================
; log2(Short Integer) --> Error24
;=======================================
In:  FL_ASLIFT=0 FL_CPXRES=0 RX=ShoI:"5#7"
Out: EC=0 FL_CPXRES=0 FL_ASLIFT=1 RL=ShoI:"5#7" RX=ShoI:"2#7"



;=======================================
; log2(Real34) --> Real34
;=======================================
In:  AM=DEG FL_ASLIFT=0 FL_CPXRES=0 FL_SPCRES=0 RX=Real:"0.0001"
Out: EC=0 FL_CPXRES=0 FL_ASLIFT=1 RL=Real:"0.0001" RX=Real:"-13.287712379549449391481277717957560703459325572098322448219026"

In:  AM=GRAD FL_ASLIFT=0 FL_CPXRES=0 RX=Real:"50"
Out: EC=0 FL_CPXRES=0 FL_ASLIFT=1 RL=Real:"50" RX=Real:"5.6438561897747246957406388589787803517296627860491612241095128"

In:  AM=DEG FL_ASLIFT=0 FL_CPXRES=0 RX=Real:"89.99999"
Out: EC=0 FL_CPXRES=0 FL_ASLIFT=1 RL=Real:"89.99999" RX=Real:"6.4918529360302168175895930720129105261335591030017435151101347"

In:  FL_ASLIFT=0 FL_CPXRES=0 RX=Real:"5.32564":DMS
Out: EC=0 FL_CPXRES=0 FL_ASLIFT=1 RL=Real:"5.32564":DMS RX=Real:"2.4129549092529224002523452238261525321191140268114758508667583"

In:  FL_ASLIFT=0 FL_CPXRES=0 RX=Real:"-5.32564":GRAD
Out: EC=1 FL_CPXRES=0 FL_ASLIFT=0 RX=Real:"-5.32564":GRAD

In:  FL_ASLIFT=0 FL_CPXRES=1 RX=Real:"-5.32564":GRAD
Out: EC=0 FL_CPXRES=1 FL_ASLIFT=1 RL=Real:"-5.32564":GRAD RX=Cplx:"2.4129549092529224002523452238261525321191140268114758508667583 i +4.5323601418271938096276829457166668101718614677237955841860166"

In:  AM=DEG FL_ASLIFT=0 FL_CPXRES=0 FL_SPCRES=0 RX=Real:"0"
Out: EC=1 FL_CPXRES=0 FL_ASLIFT=0 RX=Real:"0"

In:  AM=DEG FL_ASLIFT=0 FL_CPXRES=0 FL_SPCRES=1 RX=Real:"0"
Out: EC=0 FL_CPXRES=0 FL_ASLIFT=1 RL=Real:"0" RX=Real:"-inf"

In:  AM=DEG FL_ASLIFT=0 FL_CPXRES=0 FL_SPCRES=0 RX=Real:"-5"
Out: EC=1 FL_CPXRES=0 FL_ASLIFT=0 RX=Real:"-5"

In:  AM=DEG FL_ASLIFT=0 FL_CPXRES=0 FL_SPCRES=1 RX=Real:"-5"
Out: EC=0 FL_CPXRES=0 FL_ASLIFT=1 RL=Real:"-5" RX=Real:"NaN"

In:  AM=DEG FL_ASLIFT=0 FL_CPXRES=1 FL_SPCRES=0 RX=Real:"-5"
Out: EC=0 FL_CPXRES=1 FL_ASLIFT=1 RL=Real:"-5" RX=Cplx:"2.3219280948873623478703194294893901758648313930245806120547564 i +4.5323601418271938096276829457166668101718614677237955841860166"

; NaN
In:  FL_ASLIFT=0 FL_CPXRES=0 RX=Real:"NaN":RAD
Out: EC=0 FL_CPXRES=0 FL_ASLIFT=1 RL=Real:"NaN":RAD RX=Real:"NaN"

In:  FL_ASLIFT=0 FL_CPXRES=0 RX=Real:"NaN"
Out: EC=0 FL_CPXRES=0 FL_ASLIFT=1 RL=Real:"NaN" RX=Real:"NaN"

; Infinity
In:  FL_ASLIFT=0 FL_CPXRES=0 FL_SPCRES=1 RX=Real:"inf":DEG
Out: EC=0 FL_CPXRES=0 FL_ASLIFT=1 RL=Real:"inf":DEG RX=Real:"NaN"

In:  FL_ASLIFT=0 FL_CPXRES=0 FL_SPCRES=0 RX=Real:"inf":MULTPI
Out: EC=1 FL_CPXRES=0 FL_ASLIFT=0 RX=Real:"inf":MULTPI

In:  FL_ASLIFT=0 FL_CPXRES=0 FL_SPCRES=1 RX=Real:"inf"
Out: EC=0 FL_CPXRES=0 FL_ASLIFT=1 RL=Real:"inf" RX=Real:"NaN"

In:  FL_ASLIFT=0 FL_CPXRES=0 FL_SPCRES=0 RX=Real:"inf"
Out: EC=1 FL_CPXRES=0 FL_ASLIFT=0 RX=Real:"inf"

In:  FL_ASLIFT=0 FL_CPXRES=0 FL_SPCRES=0 RX=Real:"-inf"
Out: EC=1 FL_CPXRES=0 FL_ASLIFT=0 RX=Real:"-inf"

In:  FL_ASLIFT=0 FL_CPXRES=0 FL_SPCRES=1 RX=Real:"-inf":DMS
Out: EC=0 FL_CPXRES=0 FL_ASLIFT=1 RL=Real:"-inf":DMS RX=Real:"NaN"

In:  FL_ASLIFT=0 FL_CPXRES=0 FL_SPCRES=0 RX=Real:"-inf":MULTPI
Out: EC=1 FL_CPXRES=0 FL_ASLIFT=0 RX=Real:"-inf":MULTPI

In:  FL_ASLIFT=0 FL_CPXRES=0 FL_SPCRES=1 RX=Real:"-inf":RAD
Out: EC=0 FL_CPXRES=0 FL_ASLIFT=1 RL=Real:"-inf":RAD RX=Real:"NaN"



;=======================================
; log2(Complex34) --> Complex34
;=======================================
In:  AM=DEG FL_ASLIFT=0 FL_CPXRES=0 RX=Cplx:"6.2 i -7.6"
Out: EC=0 FL_CPXRES=1 FL_ASLIFT=1 RL=Cplx:"6.2 i -7.6" RX=Cplx:"3.2939824944413397971921487011902400287625149892193224031176854 i -1.2789513684779097123770790153966945117657091074627130048785716"
