;*************************************************************
;*************************************************************
;**                                                         **
;**                    REAL34 - ...                         **
;**                    ... - REAL34                         **
;**                                                         **
;*************************************************************
;*************************************************************
In: FL_SPCRES=0 FL_CPXRES=0 SD=0 RM=0 IM=2compl SS=4 WS=64
Func: fnSubtract



;==================================================================
; Real34  - Long Integer      see in subtraction_longInteger.txt
; Real34  - Time              see in subtraction_time.txt
; Real34  - Date              see in subtraction_date.txt
; Real34  - String            see in subtraction_string.txt
; Real34  - Real16 Matrix     see in subtraction_real16Matrix.txt
; Real34  - Complex16 Matrix  see in subtraction_complex16Matrix.txt
; Real34  - Short Integer     see in subtraction_shortInteger.txt
;==================================================================



;=======================================
; Real34 - Real34 --> Real34
;=======================================
In:  FL_ASLIFT=0 FL_CPXRES=0 IM=2COMPL RY=Real:"123456.789" RX=Real:"45247.54264"
Out: EC=0 FL_CPXRES=0 FL_ASLIFT=1 RL=Real:"45247.54264" RX=Real:"78209.24636"

In:  AM=DEG FL_CPXRES=0 FL_ASLIFT=0 RY=Real:"2" RX=Real:"123.4":DEG
Out: EC=0 FL_CPXRES=0 FL_ASLIFT=1 RL=Real:"123.4":DEG RX=Real:"-121.4":DEG

In:  AM=DMS FL_CPXRES=0 FL_ASLIFT=0 RY=Real:"2.5" RX=Real:"123.4":DEG
Out: EC=0 FL_CPXRES=0 FL_ASLIFT=1 RL=Real:"123.4":DEG RX=Real:"-120.9":DMS

In:  AM=GRAD FL_CPXRES=0 FL_ASLIFT=0 RY=Real:"2" RX=Real:"123.4":DEG
Out: EC=0 FL_CPXRES=0 FL_ASLIFT=1 RL=Real:"123.4":DEG RX=Real:"-135.11111111111111111111111111111111111111111111111111111111111":GRAD

In:  AM=RAD FL_CPXRES=0 FL_ASLIFT=0 RY=Real:"2" RX=Real:"123.4":DEG
Out: EC=0 FL_CPXRES=0 FL_ASLIFT=1 RL=Real:"123.4":DEG RX=Real:"-0.1537362969610026979238344083149480883885039104604892128239342":RAD

In:  AM=MULTPI FL_CPXRES=0 FL_ASLIFT=0 RY=Real:"2" RX=Real:"123.4":DEG
Out: EC=0 FL_CPXRES=0 FL_ASLIFT=1 RL=Real:"123.4":DEG RX=Real:"1.3144444444444444444444444444444444444444444444444444444444444":MULTPI

In:  AM=DEG FL_CPXRES=0 FL_ASLIFT=0 RY=Real:"2" RX=Real:"123.453099":DMS
Out: EC=0 FL_CPXRES=0 FL_ASLIFT=1 RL=Real:"123.453099":DMS RX=Real:"-121.453099":DEG

In:  AM=DMS FL_CPXRES=0 FL_ASLIFT=0 RY=Real:"2" RX=Real:"123.453099":DMS
Out: EC=0 FL_CPXRES=0 FL_ASLIFT=1 RL=Real:"123.453099":DMS RX=Real:"-121.453099":DMS

In:  AM=GRAD FL_CPXRES=0 FL_ASLIFT=0 RY=Real:"2" RX=Real:"123.453099":DMS
Out: EC=0 FL_CPXRES=0 FL_ASLIFT=1 RL=Real:"123.453099":DMS RX=Real:"-135.17011":GRAD

In:  AM=RAD FL_CPXRES=0 FL_ASLIFT=0 RY=Real:"2" RX=Real:"123.453099":DMS
Out: EC=0 FL_CPXRES=0 FL_ASLIFT=1 RL=Real:"123.453099":DMS RX=Real:"-0.15466304934051916698588511887610785685321494100458598362386729":RAD

In:  AM=MULTPI FL_CPXRES=0 FL_ASLIFT=0 RY=Real:"2" RX=Real:"123.453099":DMS
Out: EC=0 FL_CPXRES=0 FL_ASLIFT=1 RL=Real:"123.453099":DMS RX=Real:"1.31414945":MULTPI

In:  AM=DEG FL_CPXRES=0 FL_ASLIFT=0 RY=Real:"2" RX=Real:"123.453099":GRAD
Out: EC=0 FL_CPXRES=0 FL_ASLIFT=1 RL=Real:"123.453099":GRAD RX=Real:"-109.1077891":DEG

In:  AM=DMS FL_CPXRES=0 FL_ASLIFT=0 RY=Real:"2" RX=Real:"123.453099":GRAD
Out: EC=0 FL_CPXRES=0 FL_ASLIFT=1 RL=Real:"123.453099":GRAD RX=Real:"-109.1077891":DMS

In:  AM=GRAD FL_CPXRES=0 FL_ASLIFT=0 RY=Real:"2" RX=Real:"123.453099":GRAD
Out: EC=0 FL_CPXRES=0 FL_ASLIFT=1 RL=Real:"123.453099":GRAD RX=Real:"-121.453099":GRAD

In:  AM=RAD FL_CPXRES=0 FL_ASLIFT=0 RY=Real:"2" RX=Real:"123.453099":GRAD
Out: EC=0 FL_CPXRES=0 FL_ASLIFT=1 RL=Real:"123.453099":GRAD RX=Real:"0.06080325559353274971270339301150292883210655309587261473851944":RAD

In:  AM=MULTPI FL_CPXRES=0 FL_ASLIFT=0 RY=Real:"2" RX=Real:"123.453099":GRAD
Out: EC=0 FL_CPXRES=0 FL_ASLIFT=1 RL=Real:"123.453099":GRAD RX=Real:"1.382734505":MULTPI

In:  AM=DEG FL_CPXRES=0 FL_ASLIFT=0 RY=Real:"2" RX=Real:"3.453099789":RAD
Out: EC=0 FL_CPXRES=0 FL_ASLIFT=1 RL=Real:"3.453099789":RAD RX=Real:"-195.84804414721508495930200338417589789863839683673856829633339":DEG

In:  AM=DMS FL_CPXRES=0 FL_ASLIFT=0 RY=Real:"2" RX=Real:"3.453099789":RAD
Out: EC=0 FL_CPXRES=0 FL_ASLIFT=1 RL=Real:"3.453099789":RAD RX=Real:"-195.84804414721508495930200338417589789863839683673856829633339":DMS

In:  AM=GRAD FL_CPXRES=0 FL_ASLIFT=0 RY=Real:"2" RX=Real:"3.453099789":RAD
Out: EC=0 FL_CPXRES=0 FL_ASLIFT=1 RL=Real:"3.453099789":RAD RX=Real:"-217.83116016357231662144667042686210877626488537415396477370377":GRAD

In:  AM=RAD FL_CPXRES=0 FL_ASLIFT=0 RY=Real:"2" RX=Real:"3.453099789":RAD
Out: EC=0 FL_CPXRES=0 FL_ASLIFT=1 RL=Real:"3.453099789":RAD RX=Real:"-1.453099789":RAD

In:  AM=MULTPI FL_CPXRES=0 FL_ASLIFT=0 RY=Real:"2" RX=Real:"3.453099789":RAD
Out: EC=0 FL_CPXRES=0 FL_ASLIFT=1 RL=Real:"3.453099789":RAD RX=Real:"0.90084419918213841689276664786568945611867557312923017613148116":MULTPI

In:  AM=DEG FL_CPXRES=0 FL_ASLIFT=0 RY=Real:"2" RX=Real:"3.453099789":MULTPI
Out: EC=0 FL_CPXRES=0 FL_ASLIFT=1 RL=Real:"3.453099789":MULTPI RX=Real:"-619.55796202":DEG

In:  AM=DMS FL_CPXRES=0 FL_ASLIFT=0 RY=Real:"2" RX=Real:"3.453099789":MULTPI
Out: EC=0 FL_CPXRES=0 FL_ASLIFT=1 RL=Real:"3.453099789":MULTPI RX=Real:"-619.55796202":DMS

In:  AM=GRAD FL_CPXRES=0 FL_ASLIFT=0 RY=Real:"2" RX=Real:"3.453099789":MULTPI
Out: EC=0 FL_CPXRES=0 FL_ASLIFT=1 RL=Real:"3.453099789":MULTPI RX=Real:"-688.6199578":GRAD

In:  AM=RAD FL_CPXRES=0 FL_ASLIFT=0 RY=Real:"2" RX=Real:"3.453099789":MULTPI
Out: EC=0 FL_CPXRES=0 FL_ASLIFT=1 RL=Real:"3.453099789":MULTPI RX=Real:"-8.8482329292348651242889805511846975374461370873794346422612529":RAD

In:  AM=MULTPI FL_CPXRES=0 FL_ASLIFT=0 RY=Real:"2" RX=Real:"3.453099789":MULTPI
Out: EC=0 FL_CPXRES=0 FL_ASLIFT=1 RL=Real:"3.453099789":MULTPI RX=Real:"-1.453099789":MULTPI

In:  AM=DEG FL_CPXRES=0 FL_ASLIFT=0 RY=Real:"123.4":DEG RX=Real:"2"
Out: EC=0 FL_CPXRES=0 FL_ASLIFT=1 RL=Real:"2" RX=Real:"121.4":DEG

In:  AM=DMS FL_CPXRES=0 FL_ASLIFT=0 RY=Real:"123.4":DEG RX=Real:"2.5"
Out: EC=0 FL_CPXRES=0 FL_ASLIFT=1 RL=Real:"2.5" RX=Real:"120.9":DMS

In:  AM=GRAD FL_CPXRES=0 FL_ASLIFT=0 RY=Real:"123.4":DEG RX=Real:"2"
Out: EC=0 FL_CPXRES=0 FL_ASLIFT=1 RL=Real:"2" RX=Real:"135.11111111111111111111111111111111111111111111111111111111111":GRAD

In:  AM=RAD FL_CPXRES=0 FL_ASLIFT=0 RY=Real:"123.4":DEG RX=Real:"2"
Out: EC=0 FL_CPXRES=0 FL_ASLIFT=1 RL=Real:"2" RX=Real:"0.1537362969610026979238344083149480883885039104604892128239342":RAD

In:  AM=MULTPI FL_CPXRES=0 FL_ASLIFT=0 RY=Real:"123.4":DEG RX=Real:"2"
Out: EC=0 FL_CPXRES=0 FL_ASLIFT=1 RL=Real:"2" RX=Real:"-1.3144444444444444444444444444444444444444444444444444444444444":MULTPI

In:  AM=DEG FL_CPXRES=0 FL_ASLIFT=0 RY=Real:"123.453099":DMS RX=Real:"2"
Out: EC=0 FL_CPXRES=0 FL_ASLIFT=1 RL=Real:"2" RX=Real:"121.453099":DEG

In:  AM=DMS FL_CPXRES=0 FL_ASLIFT=0 RY=Real:"123.453099":DMS RX=Real:"2"
Out: EC=0 FL_CPXRES=0 FL_ASLIFT=1 RL=Real:"2" RX=Real:"121.453099":DMS

In:  AM=GRAD FL_CPXRES=0 FL_ASLIFT=0 RY=Real:"123.453099":DMS RX=Real:"2"
Out: EC=0 FL_CPXRES=0 FL_ASLIFT=1 RL=Real:"2" RX=Real:"135.17011":GRAD

In:  AM=RAD FL_CPXRES=0 FL_ASLIFT=0 RY=Real:"123.453099":DMS RX=Real:"2"
Out: EC=0 FL_CPXRES=0 FL_ASLIFT=1 RL=Real:"2" RX=Real:"0.15466304934051916698588511887610785685321494100458598362386729":RAD

In:  AM=MULTPI FL_CPXRES=0 FL_ASLIFT=0 RY=Real:"123.453099":DMS RX=Real:"2"
Out: EC=0 FL_CPXRES=0 FL_ASLIFT=1 RL=Real:"2" RX=Real:"-1.31414945":MULTPI

In:  AM=DEG FL_CPXRES=0 FL_ASLIFT=0 RY=Real:"123.453099":GRAD RX=Real:"2"
Out: EC=0 FL_CPXRES=0 FL_ASLIFT=1 RL=Real:"2" RX=Real:"109.1077891":DEG

In:  AM=DMS FL_CPXRES=0 FL_ASLIFT=0 RY=Real:"123.453099":GRAD RX=Real:"2"
Out: EC=0 FL_CPXRES=0 FL_ASLIFT=1 RL=Real:"2" RX=Real:"109.1077891":DMS

In:  AM=GRAD FL_CPXRES=0 FL_ASLIFT=0 RY=Real:"123.453099":GRAD RX=Real:"2"
Out: EC=0 FL_CPXRES=0 FL_ASLIFT=1 RL=Real:"2" RX=Real:"121.453099":GRAD

In:  AM=RAD FL_CPXRES=0 FL_ASLIFT=0 RY=Real:"123.453099":GRAD RX=Real:"2"
Out: EC=0 FL_CPXRES=0 FL_ASLIFT=1 RL=Real:"2" RX=Real:"-0.06080325559353274971270339301150292883210655309587261473851944":RAD

In:  AM=MULTPI FL_CPXRES=0 FL_ASLIFT=0 RY=Real:"123.453099":GRAD RX=Real:"2"
Out: EC=0 FL_CPXRES=0 FL_ASLIFT=1 RL=Real:"2" RX=Real:"-1.382734505":MULTPI

In:  AM=DEG FL_CPXRES=0 FL_ASLIFT=0 RY=Real:"3.453099789":RAD RX=Real:"2"
Out: EC=0 FL_CPXRES=0 FL_ASLIFT=1 RL=Real:"2" RX=Real:"195.84804414721508495930200338417589789863839683673856829633339":DEG

In:  AM=DMS FL_CPXRES=0 FL_ASLIFT=0 RY=Real:"3.453099789":RAD RX=Real:"2"
Out: EC=0 FL_CPXRES=0 FL_ASLIFT=1 RL=Real:"2" RX=Real:"195.84804414721508495930200338417589789863839683673856829633339":DMS

In:  AM=GRAD FL_CPXRES=0 FL_ASLIFT=0 RY=Real:"3.453099789":RAD RX=Real:"2"
Out: EC=0 FL_CPXRES=0 FL_ASLIFT=1 RL=Real:"2" RX=Real:"217.83116016357231662144667042686210877626488537415396477370377":GRAD

In:  AM=RAD FL_CPXRES=0 FL_ASLIFT=0 RY=Real:"3.453099789":RAD RX=Real:"2"
Out: EC=0 FL_CPXRES=0 FL_ASLIFT=1 RL=Real:"2" RX=Real:"1.453099789":RAD

In:  AM=MULTPI FL_CPXRES=0 FL_ASLIFT=0 RY=Real:"3.453099789":RAD RX=Real:"2"
Out: EC=0 FL_CPXRES=0 FL_ASLIFT=1 RL=Real:"2" RX=Real:"-0.90084419918213841689276664786568945611867557312923017613148116":MULTPI

In:  AM=DEG FL_CPXRES=0 FL_ASLIFT=0 RY=Real:"3.453099789":MULTPI RX=Real:"2"
Out: EC=0 FL_CPXRES=0 FL_ASLIFT=1 RL=Real:"2" RX=Real:"619.55796202":DEG

In:  AM=DMS FL_CPXRES=0 FL_ASLIFT=0 RY=Real:"3.453099789":MULTPI RX=Real:"2"
Out: EC=0 FL_CPXRES=0 FL_ASLIFT=1 RL=Real:"2" RX=Real:"619.55796202":DMS

In:  AM=GRAD FL_CPXRES=0 FL_ASLIFT=0 RY=Real:"3.453099789":MULTPI RX=Real:"2"
Out: EC=0 FL_CPXRES=0 FL_ASLIFT=1 RL=Real:"2" RX=Real:"688.6199578":GRAD

In:  AM=RAD FL_CPXRES=0 FL_ASLIFT=0 RY=Real:"3.453099789":MULTPI RX=Real:"2"
Out: EC=0 FL_CPXRES=0 FL_ASLIFT=1 RL=Real:"2" RX=Real:"8.8482329292348651242889805511846975374461370873794346422612529":RAD

In:  AM=MULTPI FL_CPXRES=0 FL_ASLIFT=0 RY=Real:"3.453099789":MULTPI RX=Real:"2"
Out: EC=0 FL_CPXRES=0 FL_ASLIFT=1 RL=Real:"2" RX=Real:"1.453099789":MULTPI

In:  AM=DEG FL_CPXRES=0 FL_ASLIFT=0 RY=Real:"123.4":DEG RX=Real:"2":DEG
Out: EC=0 FL_CPXRES=0 FL_ASLIFT=1 RL=Real:"2":DEG RX=Real:"121.4":DEG

In:  AM=DMS FL_CPXRES=0 FL_ASLIFT=0 RY=Real:"123.4":DEG RX=Real:"2.5":DMS
Out: EC=0 FL_CPXRES=0 FL_ASLIFT=1 RL=Real:"2.5":DMS RX=Real:"120.9":DMS

In:  AM=GRAD FL_CPXRES=0 FL_ASLIFT=0 RY=Real:"123.4":DEG RX=Real:"2":GRAD
Out: EC=0 FL_CPXRES=0 FL_ASLIFT=1 RL=Real:"2":GRAD RX=Real:"135.11111111111111111111111111111111111111111111111111111111111":GRAD

In:  AM=RAD FL_CPXRES=0 FL_ASLIFT=0 RY=Real:"123.4":DEG RX=Real:"2":RAD
Out: EC=0 FL_CPXRES=0 FL_ASLIFT=1 RL=Real:"2":RAD RX=Real:"0.1537362969610026979238344083149480883885039104604892128239342":RAD

In:  AM=MULTPI FL_CPXRES=0 FL_ASLIFT=0 RY=Real:"123.4":DEG RX=Real:"2":MULTPI
Out: EC=0 FL_CPXRES=0 FL_ASLIFT=1 RL=Real:"2":MULTPI RX=Real:"-1.3144444444444444444444444444444444444444444444444444444444444":MULTPI

In:  AM=DEG FL_CPXRES=0 FL_ASLIFT=0 RY=Real:"123.453099":DMS RX=Real:"2":DEG
Out: EC=0 FL_CPXRES=0 FL_ASLIFT=1 RL=Real:"2":DEG RX=Real:"121.453099":DEG

In:  AM=DMS FL_CPXRES=0 FL_ASLIFT=0 RY=Real:"123.453099":DMS RX=Real:"2":DMS
Out: EC=0 FL_CPXRES=0 FL_ASLIFT=1 RL=Real:"2":DMS RX=Real:"121.453099":DMS

In:  AM=GRAD FL_CPXRES=0 FL_ASLIFT=0 RY=Real:"123.453099":DMS RX=Real:"2":GRAD
Out: EC=0 FL_CPXRES=0 FL_ASLIFT=1 RL=Real:"2":GRAD RX=Real:"135.17011":GRAD

In:  AM=RAD FL_CPXRES=0 FL_ASLIFT=0 RY=Real:"123.453099":DMS RX=Real:"2":RAD
Out: EC=0 FL_CPXRES=0 FL_ASLIFT=1 RL=Real:"2":RAD RX=Real:"0.15466304934051916698588511887610785685321494100458598362386729":RAD

In:  AM=MULTPI FL_CPXRES=0 FL_ASLIFT=0 RY=Real:"123.453099":DMS RX=Real:"2":MULTPI
Out: EC=0 FL_CPXRES=0 FL_ASLIFT=1 RL=Real:"2":MULTPI RX=Real:"-1.31414945":MULTPI

In:  AM=DEG FL_CPXRES=0 FL_ASLIFT=0 RY=Real:"123.453099":GRAD RX=Real:"2":DEG
Out: EC=0 FL_CPXRES=0 FL_ASLIFT=1 RL=Real:"2":DEG RX=Real:"109.1077891":DEG

In:  AM=DMS FL_CPXRES=0 FL_ASLIFT=0 RY=Real:"123.453099":GRAD RX=Real:"2":DMS
Out: EC=0 FL_CPXRES=0 FL_ASLIFT=1 RL=Real:"2":DMS RX=Real:"109.1077891":DMS

In:  AM=GRAD FL_CPXRES=0 FL_ASLIFT=0 RY=Real:"123.453099":GRAD RX=Real:"2":GRAD
Out: EC=0 FL_CPXRES=0 FL_ASLIFT=1 RL=Real:"2":GRAD RX=Real:"121.453099":GRAD

In:  AM=RAD FL_CPXRES=0 FL_ASLIFT=0 RY=Real:"123.453099":GRAD RX=Real:"2":RAD
Out: EC=0 FL_CPXRES=0 FL_ASLIFT=1 RL=Real:"2":RAD RX=Real:"-0.06080325559353274971270339301150292883210655309587261473851944":RAD

In:  AM=MULTPI FL_CPXRES=0 FL_ASLIFT=0 RY=Real:"123.453099":GRAD RX=Real:"2":MULTPI
Out: EC=0 FL_CPXRES=0 FL_ASLIFT=1 RL=Real:"2":MULTPI RX=Real:"-1.382734505":MULTPI

In:  AM=DEG FL_CPXRES=0 FL_ASLIFT=0 RY=Real:"3.453099789":RAD RX=Real:"2":DEG
Out: EC=0 FL_CPXRES=0 FL_ASLIFT=1 RL=Real:"2":DEG RX=Real:"195.84804414721508495930200338417589789863839683673856829633339":DEG

In:  AM=DMS FL_CPXRES=0 FL_ASLIFT=0 RY=Real:"3.453099789":RAD RX=Real:"2":DMS
Out: EC=0 FL_CPXRES=0 FL_ASLIFT=1 RL=Real:"2":DMS RX=Real:"195.84804414721508495930200338417589789863839683673856829633339":DMS

In:  AM=GRAD FL_CPXRES=0 FL_ASLIFT=0 RY=Real:"3.453099789":RAD RX=Real:"2":GRAD
Out: EC=0 FL_CPXRES=0 FL_ASLIFT=1 RL=Real:"2":GRAD RX=Real:"217.83116016357231662144667042686210877626488537415396477370377":GRAD

In:  AM=RAD FL_CPXRES=0 FL_ASLIFT=0 RY=Real:"3.453099789":RAD RX=Real:"2":RAD
Out: EC=0 FL_CPXRES=0 FL_ASLIFT=1 RL=Real:"2":RAD RX=Real:"1.453099789":RAD

In:  AM=MULTPI FL_CPXRES=0 FL_ASLIFT=0 RY=Real:"3.453099789":RAD RX=Real:"2":MULTPI
Out: EC=0 FL_CPXRES=0 FL_ASLIFT=1 RL=Real:"2":MULTPI RX=Real:"-0.90084419918213841689276664786568945611867557312923017613148116":MULTPI

In:  AM=DEG FL_CPXRES=0 FL_ASLIFT=0 RY=Real:"3.453099789":MULTPI RX=Real:"2":DEG
Out: EC=0 FL_CPXRES=0 FL_ASLIFT=1 RL=Real:"2":DEG RX=Real:"619.55796202":DEG

In:  AM=DMS FL_CPXRES=0 FL_ASLIFT=0 RY=Real:"3.453099789":MULTPI RX=Real:"2":DMS
Out: EC=0 FL_CPXRES=0 FL_ASLIFT=1 RL=Real:"2":DMS RX=Real:"619.55796202":DMS

In:  AM=GRAD FL_CPXRES=0 FL_ASLIFT=0 RY=Real:"3.453099789":MULTPI RX=Real:"2":GRAD
Out: EC=0 FL_CPXRES=0 FL_ASLIFT=1 RL=Real:"2":GRAD RX=Real:"688.6199578":GRAD

In:  AM=RAD FL_CPXRES=0 FL_ASLIFT=0 RY=Real:"3.453099789":MULTPI RX=Real:"2":RAD
Out: EC=0 FL_CPXRES=0 FL_ASLIFT=1 RL=Real:"2":RAD RX=Real:"8.8482329292348651242889805511846975374461370873794346422612529":RAD

In:  AM=MULTPI FL_CPXRES=0 FL_ASLIFT=0 RY=Real:"3.453099789":MULTPI RX=Real:"2":MULTPI
Out: EC=0 FL_CPXRES=0 FL_ASLIFT=1 RL=Real:"2":MULTPI RX=Real:"1.453099789":MULTPI



;=======================================
; Real34 - Complex34 --> Complex34
;=======================================
In:  FL_ASLIFT=0 FL_CPXRES=0 RY=Real:"12540" RX=Cplx:"123.456 i -6.78"
Out: EC=0 FL_CPXRES=1 FL_ASLIFT=1 RL=Cplx:"123.456 i -6.78" RX=Cplx:"12416.544 i 6.78"

In:  FL_ASLIFT=0 FL_CPXRES=0 RY=Real:"12540":DEG RX=Cplx:"123.456 i -6.78"
Out: EC=0 FL_CPXRES=1 FL_ASLIFT=1 RL=Cplx:"123.456 i -6.78" RX=Cplx:"12416.544 i 6.78"

;=======================================
; Complex34 - Real34 --> Complex34
;=======================================
In:  FL_ASLIFT=0 FL_CPXRES=0 RY=Cplx:"123.456 i -6.78" RX=Real:"12540"
Out: EC=0 FL_CPXRES=1 FL_ASLIFT=1 RL=Real:"12540" RX=Cplx:"-12416.544 i -6.78"

In:  FL_ASLIFT=0 FL_CPXRES=0 RY=Cplx:"123.456 i -6.78" RX=Real:"12540":DEG
Out: EC=0 FL_CPXRES=1 FL_ASLIFT=1 RL=Real:"12540":DEG RX=Cplx:"-12416.544 i -6.78"
